<svg xmlns="http://www.w3.org/2000/svg" width="19.7" height="14.672" viewBox="0 0 19.7 14.672">
  <g id="Component_23" data-name="Component 23" transform="translate(-1437.907 -76.729)">
    <path id="Path_94" data-name="Path 94" d="M1450.282,76.729l-1.737,1.728,4.37,4.383h-15.008v2.45h15.024l-4.377,4.379,1.732,1.732,7.321-7.322Z" fill="#898d8e"/>
  </g>
</svg>
