<svg xmlns="http://www.w3.org/2000/svg" xmlns:xlink="http://www.w3.org/1999/xlink" width="268" height="268" viewBox="0 0 268 268">
  <defs>
    <linearGradient id="linear-gradient" x1="-0.471" y1="1.063" x2="3.157" y2="-1.524" gradientUnits="objectBoundingBox">
      <stop offset="0" stop-color="#b8c408"/>
      <stop offset="1" stop-color="#b8c400"/>
    </linearGradient>
  </defs>
  <g id="Сгруппировать_1624" data-name="Сгруппировать 1624" transform="translate(-429 -310.871)">
    <rect id="Прямоугольник_680" data-name="Прямоугольник 680" width="268" height="268" transform="translate(429 310.871)" fill="#f0f0f0"/>
    <g id="Сгруппировать_1615" data-name="Сгруппировать 1615" transform="translate(-829.179 262.082)">
      <path id="Контур_849" data-name="Контур 849" d="M1322.263,207.669H1311.52V168.424h9.227a1.17,1.17,0,0,0,1.17-1.17v-9.226h23.65v10.742a1.17,1.17,0,0,0,2.341,0V156.857a1.171,1.171,0,0,0-1.17-1.17h-25.99c-.025,0-.046.013-.069.014a1.2,1.2,0,0,0-.308.061c-.036.013-.073.022-.108.039a1.167,1.167,0,0,0-.343.229l-10.4,10.4a1.16,1.16,0,0,0-.228.343.959.959,0,0,0-.04.11,1.155,1.155,0,0,0-.06.3c0,.026-.015.048-.015.074v41.586a1.17,1.17,0,0,0,1.17,1.17h11.913a1.17,1.17,0,1,0,0-2.341Zm-2.686-41.586h-6.4l3.2-3.2,3.2-3.2Z" transform="translate(0 6.937)" fill="url(#linear-gradient)"/>
      <path id="Контур_850" data-name="Контур 850" d="M1373.672,227.889a1.17,1.17,0,0,0-1.17,1.17V239.8h-46.176V186.695h12.692a1.171,1.171,0,0,0,1.17-1.17V172.833H1354.4a1.17,1.17,0,1,0,0-2.341h-15.38a.655.655,0,0,0-.069.014,1.16,1.16,0,0,0-.308.061c-.036.013-.073.022-.108.039a1.167,1.167,0,0,0-.343.229L1324.328,184.7a1.145,1.145,0,0,0-.229.342c-.016.036-.027.074-.04.111a1.213,1.213,0,0,0-.06.3c0,.025-.014.048-.014.074v55.449a1.17,1.17,0,0,0,1.17,1.17h48.517a1.171,1.171,0,0,0,1.17-1.17V229.06A1.17,1.17,0,0,0,1373.672,227.889Zm-35.825-43.535h-9.866l4.933-4.933,4.933-4.933Z" transform="translate(2.522 9.459)" fill="url(#linear-gradient)"/>
      <path id="Контур_851" data-name="Контур 851" d="M1334.038,219.1h19.092a1.17,1.17,0,1,0,0-2.341h-19.092a1.17,1.17,0,1,0,0,2.341Z" transform="translate(4.036 17.341)" fill="url(#linear-gradient)"/>
      <path id="Контур_852" data-name="Контур 852" d="M1353.131,205.654h-19.092a1.17,1.17,0,1,0,0,2.341h19.092a1.17,1.17,0,1,0,0-2.341Z" transform="translate(4.036 15.45)" fill="url(#linear-gradient)"/>
      <path id="Контур_853" data-name="Контур 853" d="M1353.131,194.551h-19.092a1.17,1.17,0,1,0,0,2.341h19.092a1.17,1.17,0,1,0,0-2.341Z" transform="translate(4.036 13.558)" fill="url(#linear-gradient)"/>
      <path id="Контур_854" data-name="Контур 854" d="M1334.038,213.547h7.279a1.17,1.17,0,1,0,0-2.341h-7.279a1.17,1.17,0,1,0,0,2.341Z" transform="translate(4.036 16.396)" fill="url(#linear-gradient)"/>
      <path id="Контур_855" data-name="Контур 855" d="M1351.567,211.206h-8.347a1.17,1.17,0,1,0,0,2.341h8.347a1.17,1.17,0,1,0,0-2.341Z" transform="translate(5.6 16.396)" fill="url(#linear-gradient)"/>
      <path id="Контур_856" data-name="Контур 856" d="M1334.038,202.443h7.279a1.17,1.17,0,1,0,0-2.341h-7.279a1.17,1.17,0,1,0,0,2.341Z" transform="translate(4.036 14.504)" fill="url(#linear-gradient)"/>
      <path id="Контур_857" data-name="Контур 857" d="M1351.567,200.1h-8.347a1.17,1.17,0,1,0,0,2.341h8.347a1.17,1.17,0,1,0,0-2.341Z" transform="translate(5.6 14.504)" fill="url(#linear-gradient)"/>
      <path id="Контур_858" data-name="Контур 858" d="M1456.291,155.687h-26.78a1.171,1.171,0,0,0-1.17,1.17,1.087,1.087,0,0,0,.051.254l-9.315,9.315a1.17,1.17,0,0,0,.828,2h10.4a1.17,1.17,0,0,0,1.17-1.17v-9.226h23.65v49.641h-8.836a1.17,1.17,0,0,0,0,2.341h10.007a1.169,1.169,0,0,0,1.17-1.17V156.857A1.17,1.17,0,0,0,1456.291,155.687Zm-27.161,10.4h-6.4l6.4-6.4Z" transform="translate(18.665 6.937)" fill="url(#linear-gradient)"/>
      <path id="Контур_859" data-name="Контур 859" d="M1430.106,211.206h-19.234a1.17,1.17,0,1,0,0,2.341h19.234a1.17,1.17,0,1,0,0-2.341Z" transform="translate(17.126 16.396)" fill="url(#linear-gradient)"/>
      <path id="Контур_860" data-name="Контур 860" d="M1428.366,216.758h-7.278a1.17,1.17,0,1,0,0,2.341h7.278a1.17,1.17,0,1,0,0-2.341Z" transform="translate(18.867 17.341)" fill="url(#linear-gradient)"/>
      <path id="Контур_861" data-name="Контур 861" d="M1410.872,216.758a1.17,1.17,0,1,0,0,2.341h8.49a1.17,1.17,0,1,0,0-2.341Z" transform="translate(17.126 17.341)" fill="url(#linear-gradient)"/>
      <path id="Контур_862" data-name="Контур 862" d="M1409.7,201.272a1.17,1.17,0,0,0,1.17,1.17h19.234a1.17,1.17,0,1,0,0-2.341h-19.234A1.171,1.171,0,0,0,1409.7,201.272Z" transform="translate(17.126 14.504)" fill="url(#linear-gradient)"/>
      <path id="Контур_863" data-name="Контур 863" d="M1428.366,205.654h-7.278a1.17,1.17,0,1,0,0,2.341h7.278a1.17,1.17,0,1,0,0-2.341Z" transform="translate(18.867 15.45)" fill="url(#linear-gradient)"/>
      <path id="Контур_864" data-name="Контур 864" d="M1410.872,207.995h8.49a1.17,1.17,0,1,0,0-2.341h-8.49a1.17,1.17,0,1,0,0,2.341Z" transform="translate(17.126 15.45)" fill="url(#linear-gradient)"/>
      <path id="Контур_865" data-name="Контур 865" d="M1428.366,196.892a1.17,1.17,0,1,0,0-2.341h-7.278a1.17,1.17,0,1,0,0,2.341Z" transform="translate(18.867 13.558)" fill="url(#linear-gradient)"/>
      <path id="Контур_866" data-name="Контур 866" d="M1419.362,194.551h-8.49a1.17,1.17,0,1,0,0,2.341h8.49a1.17,1.17,0,1,0,0-2.341Z" transform="translate(17.126 13.558)" fill="url(#linear-gradient)"/>
      <path id="Контур_867" data-name="Контур 867" d="M1384.375,125.977a1.17,1.17,0,0,0,1.17-1.17v-8.664a1.17,1.17,0,1,0-2.341,0v8.664A1.171,1.171,0,0,0,1384.375,125.977Z" transform="translate(12.612 0)" fill="url(#linear-gradient)"/>
      <path id="Контур_868" data-name="Контур 868" d="M1371.913,125.971a1.168,1.168,0,0,0,1.129.867,1.124,1.124,0,0,0,.3-.04,1.168,1.168,0,0,0,.828-1.433l-1.121-4.185a1.17,1.17,0,1,0-2.26.606Z" transform="translate(10.49 0.91)" fill="url(#linear-gradient)"/>
      <path id="Контур_869" data-name="Контур 869" d="M1361.784,131.174a1.17,1.17,0,0,0,2.027-1.17l-2.165-3.752h0l-2.165-3.75a1.17,1.17,0,1,0-2.027,1.17Z" transform="translate(8.198 1.183)" fill="url(#linear-gradient)"/>
      <path id="Контур_870" data-name="Контур 870" d="M1352.588,137.829a1.171,1.171,0,1,0,1.655-1.656l-3.064-3.063a1.17,1.17,0,0,0-1.655,1.655Z" transform="translate(6.815 3.032)" fill="url(#linear-gradient)"/>
      <path id="Контур_871" data-name="Контур 871" d="M1415.782,138.172a1.171,1.171,0,0,0,.827-.343l3.063-3.064a1.17,1.17,0,0,0-1.655-1.655l-3.063,3.063a1.171,1.171,0,0,0,.827,2Z" transform="translate(17.963 3.032)" fill="url(#linear-gradient)"/>
      <path id="Контур_872" data-name="Контур 872" d="M1406,131.6a1.17,1.17,0,0,0,1.6-.428l4.331-7.5a1.17,1.17,0,1,0-2.027-1.17l-2.166,3.75h0L1405.57,130A1.17,1.17,0,0,0,1406,131.6Z" transform="translate(16.395 1.183)" fill="url(#linear-gradient)"/>
      <path id="Контур_873" data-name="Контур 873" d="M1395.568,126.8a1.136,1.136,0,0,0,.3.04,1.171,1.171,0,0,0,1.13-.867l1.12-4.184a1.17,1.17,0,1,0-2.26-.606l-1.121,4.185A1.17,1.17,0,0,0,1395.568,126.8Z" transform="translate(14.57 0.91)" fill="url(#linear-gradient)"/>
      <path id="Контур_874" data-name="Контур 874" d="M1443.252,170.492h-29.234a1.17,1.17,0,1,0,0,2.341h28.063V239.8h-46.176V229.06a1.17,1.17,0,1,0-2.341,0v11.913a1.171,1.171,0,0,0,1.17,1.17h48.517a1.171,1.171,0,0,0,1.17-1.17V171.662A1.17,1.17,0,0,0,1443.252,170.492Z" transform="translate(14.377 9.459)" fill="url(#linear-gradient)"/>
      <path id="Контур_875" data-name="Контур 875" d="M1353.667,159.016a1.115,1.115,0,0,0-.056.288,1.05,1.05,0,0,0-.007.121,1.155,1.155,0,0,0,.073.369c0,.011,0,.021.007.032v0a1.159,1.159,0,0,0,.231.344c.009.011.013.025.023.035s.041.023.06.04a1.158,1.158,0,0,0,.266.177.928.928,0,0,0,.1.049,1.175,1.175,0,0,0,.4.077h17.327a1.17,1.17,0,0,0,1.17-1.17V143.223h40.978v84.3h-58.306V163.711a1.17,1.17,0,1,0-2.341,0v64.978a1.17,1.17,0,0,0,1.17,1.17h60.646a1.17,1.17,0,0,0,1.17-1.17V142.052a1.17,1.17,0,0,0-1.17-1.17h-43.319c-.022,0-.043.012-.066.013a1.146,1.146,0,0,0-.314.062c-.035.013-.07.022-.1.037a1.153,1.153,0,0,0-.344.231l-17.327,17.327a1.154,1.154,0,0,0-.231.348A1.058,1.058,0,0,0,1353.667,159.016Zm3.924-.806,7.291-7.291,6.04-6.04v13.332Z" transform="translate(7.567 4.414)" fill="url(#linear-gradient)"/>
      <path id="Контур_876" data-name="Контур 876" d="M1365.869,202.443h9.1a1.17,1.17,0,1,0,0-2.341h-9.1a1.17,1.17,0,1,0,0,2.341Z" transform="translate(9.459 14.504)" fill="url(#linear-gradient)"/>
      <path id="Контур_877" data-name="Контур 877" d="M1398.57,200.1h-21.225a1.17,1.17,0,1,0,0,2.341h21.225a1.17,1.17,0,0,0,0-2.341Z" transform="translate(11.414 14.504)" fill="url(#linear-gradient)"/>
      <path id="Контур_878" data-name="Контур 878" d="M1396.805,185.3h-9.1a1.17,1.17,0,1,0,0,2.341h9.1a1.17,1.17,0,0,0,0-2.341Z" transform="translate(13.179 11.981)" fill="url(#linear-gradient)"/>
      <path id="Контур_879" data-name="Контур 879" d="M1365.869,187.638h21.225a1.17,1.17,0,0,0,0-2.341h-21.225a1.17,1.17,0,1,0,0,2.341Z" transform="translate(9.459 11.981)" fill="url(#linear-gradient)"/>
      <path id="Контур_880" data-name="Контур 880" d="M1365.869,195.194h34.656a1.17,1.17,0,0,0,0-2.341h-34.656a1.17,1.17,0,1,0,0,2.341Z" transform="translate(9.459 13.269)" fill="url(#linear-gradient)"/>
      <path id="Контур_881" data-name="Контур 881" d="M1365.869,172.833h9.1a1.17,1.17,0,1,0,0-2.341h-9.1a1.17,1.17,0,1,0,0,2.341Z" transform="translate(9.459 9.459)" fill="url(#linear-gradient)"/>
      <path id="Контур_882" data-name="Контур 882" d="M1398.57,172.833a1.17,1.17,0,0,0,0-2.341h-21.225a1.17,1.17,0,1,0,0,2.341Z" transform="translate(11.414 9.459)" fill="url(#linear-gradient)"/>
      <path id="Контур_883" data-name="Контур 883" d="M1365.869,180.081h34.656a1.17,1.17,0,0,0,0-2.341h-34.656a1.17,1.17,0,1,0,0,2.341Z" transform="translate(9.459 10.694)" fill="url(#linear-gradient)"/>
    </g>
  </g>
</svg>
