<svg xmlns="http://www.w3.org/2000/svg" xmlns:xlink="http://www.w3.org/1999/xlink" width="119.837" height="119.092" viewBox="0 0 119.837 119.092">
  <defs>
    <linearGradient id="linear-gradient" x1="-1.407" y1="2.155" x2="0.998" y2="0.068" gradientUnits="objectBoundingBox">
      <stop offset="0" stop-color="#d6428f"/>
      <stop offset="0.136" stop-color="#d94c83"/>
      <stop offset="0.377" stop-color="#e16965"/>
      <stop offset="0.693" stop-color="#ef9735"/>
      <stop offset="1" stop-color="#ffcb00"/>
    </linearGradient>
  </defs>
  <g id="Сгруппировать_1263" data-name="Сгруппировать 1263" transform="translate(-969 -429)">
    <rect id="Прямоугольник_217" data-name="Прямоугольник 217" width="119.837" height="119.092" transform="translate(969 429)" fill="url(#linear-gradient)"/>
    <g id="Icon" transform="translate(0.496 56.946)">
      <path id="Контур_462" data-name="Контур 462" d="M1000.147,430.672a2.017,2.017,0,0,1-1.92-1.4l-6.483-20.285a5.063,5.063,0,0,1,3.278-6.355l20.284-6.482a2.016,2.016,0,0,1,2.531,1.305l2.274,7.114a.849.849,0,0,0,1.123.529,1.019,1.019,0,0,0,.407-.337,3.749,3.749,0,0,1,1.847-1.325h0c2.171-.692,4.585.773,5.382,3.268s-.319,5.09-2.49,5.784a3.747,3.747,0,0,1-2.306-.019.9.9,0,0,0-.551-.012.849.849,0,0,0-.551,1.066l2.274,7.114a2.014,2.014,0,0,1-1.306,2.532l-7.113,2.273a2.85,2.85,0,0,1-3.581-1.847,2.883,2.883,0,0,1,.015-1.776,1.732,1.732,0,0,0,.016-1.081c-.357-1.119-1.825-1.656-3.269-1.194s-2.33,1.749-1.972,2.869a1.732,1.732,0,0,0,.625.86,2.987,2.987,0,0,1,.992,1.267,2.85,2.85,0,0,1-1.781,3.764l-7.113,2.273A2.008,2.008,0,0,1,1000.147,430.672Zm15.785-32.609-20.3,6.473a3.06,3.06,0,0,0-1.98,3.842l6.482,20.284,7.131-2.264a.85.85,0,0,0,.53-1.124,1.015,1.015,0,0,0-.337-.406,3.743,3.743,0,0,1-1.325-1.847c-.693-2.171.772-4.585,3.268-5.383s5.09.32,5.783,2.49a3.736,3.736,0,0,1-.019,2.307.9.9,0,0,0-.011.551.848.848,0,0,0,1.066.55l7.114-2.274-2.265-7.131a2.849,2.849,0,0,1,1.847-3.58,2.879,2.879,0,0,1,1.777.014,1.739,1.739,0,0,0,1.081.017c1.119-.358,1.655-1.825,1.193-3.27s-1.749-2.33-2.869-1.972a1.736,1.736,0,0,0-.86.626,2.99,2.99,0,0,1-1.267.992,2.85,2.85,0,0,1-3.763-1.782Z" fill="#fff"/>
      <path id="Контур_463" data-name="Контур 463" d="M1044.564,443.332c-2.62,0-4.751-1.853-4.751-4.132a3.748,3.748,0,0,1,.72-2.192.9.9,0,0,0,.179-.521.849.849,0,0,0-.848-.849H1032.4a2.016,2.016,0,0,1-2.014-2.013v-7.469a2.851,2.851,0,0,1,2.848-2.848,2.883,2.883,0,0,1,1.689.555,1.731,1.731,0,0,0,1.024.344c1.176,0,2.133-1.234,2.133-2.751s-.957-2.751-2.133-2.751a1.731,1.731,0,0,0-1.01.333,2.972,2.972,0,0,1-1.51.56,2.9,2.9,0,0,1-2.139-.762,2.862,2.862,0,0,1-.9-2.081v-7.467a2.016,2.016,0,0,1,2.014-2.014h21.3a5.062,5.062,0,0,1,5.056,5.056v21.3a2.016,2.016,0,0,1-2.014,2.013h-7.468a.849.849,0,0,0-.847.909,1.027,1.027,0,0,0,.2.491,3.743,3.743,0,0,1,.7,2.162C1049.315,441.479,1047.184,443.332,1044.564,443.332Zm-11.334-18.024a.849.849,0,0,0-.848.848v7.469l7.482.013a2.852,2.852,0,0,1,2.848,2.849,2.887,2.887,0,0,1-.555,1.689,1.732,1.732,0,0,0-.344,1.024c0,1.176,1.234,2.132,2.751,2.132s2.751-.956,2.751-2.132a1.732,1.732,0,0,0-.333-1.01,2.966,2.966,0,0,1-.559-1.51,2.848,2.848,0,0,1,2.842-3.042h7.468l.014-21.308a3.06,3.06,0,0,0-3.056-3.056h-21.3l-.014,7.481a.838.838,0,0,0,.269.62.873.873,0,0,0,.64.227,1.019,1.019,0,0,0,.489-.2,3.733,3.733,0,0,1,2.163-.7c2.279,0,4.133,2.131,4.133,4.751s-1.854,4.751-4.133,4.751a3.745,3.745,0,0,1-2.192-.72A.892.892,0,0,0,1033.23,425.308Z" fill="#fff"/>
      <path id="Контур_464" data-name="Контур 464" d="M1053.691,462h-21.3a2.016,2.016,0,0,1-2.014-2.014v-7.467a.849.849,0,0,0-.909-.847,1.019,1.019,0,0,0-.49.2,3.739,3.739,0,0,1-2.163.7c-2.278,0-4.132-2.131-4.132-4.751s1.854-4.751,4.132-4.751a3.74,3.74,0,0,1,2.192.72.863.863,0,0,0,1.37-.669v-7.469a2.016,2.016,0,0,1,2.014-2.014h7.468a2.852,2.852,0,0,1,2.848,2.849,2.887,2.887,0,0,1-.555,1.689,1.732,1.732,0,0,0-.344,1.024c0,1.176,1.234,2.132,2.751,2.132s2.751-.956,2.751-2.132a1.732,1.732,0,0,0-.333-1.01,2.966,2.966,0,0,1-.559-1.51,2.848,2.848,0,0,1,2.842-3.042h7.468a2.017,2.017,0,0,1,2.014,2.014v21.295A5.062,5.062,0,0,1,1053.691,462Zm-24.162-12.33a2.849,2.849,0,0,1,2.853,2.849v7.467l21.309.014a3.06,3.06,0,0,0,3.056-3.056V435.652l-7.482-.014a.849.849,0,0,0-.847.909,1.027,1.027,0,0,0,.2.491,3.743,3.743,0,0,1,.7,2.162c0,2.279-2.131,4.132-4.751,4.132s-4.751-1.853-4.751-4.132a3.748,3.748,0,0,1,.72-2.192.9.9,0,0,0,.179-.521.849.849,0,0,0-.848-.849H1032.4l-.014,7.483a2.848,2.848,0,0,1-4.537,2.293,1.735,1.735,0,0,0-1.025-.344c-1.175,0-2.132,1.234-2.132,2.751s.957,2.751,2.132,2.751a1.731,1.731,0,0,0,1.01-.333,2.979,2.979,0,0,1,1.51-.56Q1029.434,449.673,1029.529,449.673Z" fill="#fff"/>
      <path id="Контур_465" data-name="Контур 465" d="M1030.368,462h-21.3a5.062,5.062,0,0,1-5.056-5.056V435.652a2.016,2.016,0,0,1,2.014-2.014h7.468a.847.847,0,0,0,.846-.908,1.014,1.014,0,0,0-.2-.49,3.742,3.742,0,0,1-.7-2.163c0-2.279,2.131-4.132,4.751-4.132s4.751,1.853,4.751,4.132a3.745,3.745,0,0,1-.72,2.192.9.9,0,0,0-.179.521.849.849,0,0,0,.849.848h7.468a2.017,2.017,0,0,1,2.014,2.014v7.469a2.852,2.852,0,0,1-2.849,2.848,2.882,2.882,0,0,1-1.688-.555,1.735,1.735,0,0,0-1.025-.344c-1.175,0-2.132,1.234-2.132,2.751s.957,2.751,2.132,2.751a1.731,1.731,0,0,0,1.01-.333,2.979,2.979,0,0,1,1.51-.56,2.848,2.848,0,0,1,3.042,2.843v7.467A2.016,2.016,0,0,1,1030.368,462Zm-24.337-26.365-.014,21.309a3.06,3.06,0,0,0,3.056,3.056h21.3l.014-7.481a.849.849,0,0,0-.909-.847,1.019,1.019,0,0,0-.49.2,3.739,3.739,0,0,1-2.163.7c-2.278,0-4.132-2.131-4.132-4.751s1.854-4.751,4.132-4.751a3.74,3.74,0,0,1,2.192.72.864.864,0,0,0,1.37-.669v-7.469l-7.482-.014a2.852,2.852,0,0,1-2.849-2.848,2.882,2.882,0,0,1,.555-1.688,1.729,1.729,0,0,0,.344-1.025c0-1.176-1.234-2.132-2.751-2.132s-2.751.956-2.751,2.132a1.726,1.726,0,0,0,.334,1.01,2.983,2.983,0,0,1,.559,1.51,2.85,2.85,0,0,1-2.842,3.041Z" fill="#fff"/>
    </g>
  </g>
</svg>
