<svg xmlns="http://www.w3.org/2000/svg" xmlns:xlink="http://www.w3.org/1999/xlink" width="139.837" height="119.092" viewBox="0 0 139.837 119.092">
  <defs>
    <linearGradient id="linear-gradient" x1="-1.289" y1="1.772" x2="1.496" y2="-0.208" gradientUnits="objectBoundingBox">
      <stop offset="0" stop-color="#d6428f"/>
      <stop offset="0.136" stop-color="#d94c83"/>
      <stop offset="0.377" stop-color="#e16965"/>
      <stop offset="0.693" stop-color="#ef9735"/>
      <stop offset="1" stop-color="#ffcb00"/>
    </linearGradient>
  </defs>
  <rect id="Прямоугольник_262" data-name="Прямоугольник 262" width="139.837" height="119.092" fill="url(#linear-gradient)"/>
</svg>
