<svg xmlns="http://www.w3.org/2000/svg" xmlns:xlink="http://www.w3.org/1999/xlink" width="119.837" height="119.091" viewBox="0 0 119.837 119.091">
  <defs>
    <linearGradient id="linear-gradient" x1="-0.982" y1="1.754" x2="1.381" y2="-0.245" gradientUnits="objectBoundingBox">
      <stop offset="0" stop-color="#d6428f"/>
      <stop offset="0.136" stop-color="#d94c83"/>
      <stop offset="0.377" stop-color="#e16965"/>
      <stop offset="0.693" stop-color="#ef9735"/>
      <stop offset="1" stop-color="#ffcb00"/>
    </linearGradient>
  </defs>
  <g id="Сгруппировать_1266" data-name="Сгруппировать 1266" transform="translate(-969 -569)">
    <rect id="Прямоугольник_223" data-name="Прямоугольник 223" width="119.837" height="119.091" transform="translate(969 569)" fill="url(#linear-gradient)"/>
    <g id="Сгруппировать_1214" data-name="Сгруппировать 1214" transform="translate(3.699 58.799)">
      <path id="Контур_474" data-name="Контур 474" d="M1005.636,565.55l1.1-1.586c.227-.329,5.577-8.068,6.666-9.8a9.563,9.563,0,0,0,1.572-5.661,9.335,9.335,0,0,0-18.67,0,9.556,9.556,0,0,0,1.571,5.663c1.089,1.735,6.44,9.474,6.667,9.8Zm-6.668-17.05a6.668,6.668,0,0,1,13.336,0,6.9,6.9,0,0,1-1.164,4.241c-.763,1.216-3.833,5.688-5.5,8.114-1.672-2.426-4.742-6.9-5.505-8.114A6.9,6.9,0,0,1,998.968,548.5Z" fill="#fff"/>
      <path id="Контур_475" data-name="Контур 475" d="M1004.3,579.208a8.01,8.01,0,0,1,8-8h26.671a10.668,10.668,0,1,0,0-21.337h-15.45l3.057-3.058-1.886-1.886-6.277,6.277,6.277,6.277,1.886-1.885-3.058-3.059h15.451a8,8,0,1,1,0,16H1012.3a10.669,10.669,0,1,0,0,21.337h18.67V587.21H1012.3A8.01,8.01,0,0,1,1004.3,579.208Z" fill="#fff"/>
      <path id="Контур_476" data-name="Контур 476" d="M1044.31,575.208a9.326,9.326,0,0,0-9.335,9.3,9.566,9.566,0,0,0,1.571,5.663c1.089,1.735,6.44,9.474,6.667,9.8l1.1,1.587,1.1-1.587c.227-.329,5.577-8.068,6.666-9.8a9.56,9.56,0,0,0,1.572-5.661A9.327,9.327,0,0,0,1044.31,575.208Zm5.5,13.542c-.763,1.215-3.833,5.688-5.5,8.114-1.671-2.426-4.742-6.9-5.505-8.114a6.9,6.9,0,0,1-1.163-4.243,6.668,6.668,0,0,1,13.336,0A6.9,6.9,0,0,1,1049.814,588.75Z" fill="#fff"/>
    </g>
  </g>
</svg>
