<svg xmlns="http://www.w3.org/2000/svg" width="38" height="37.131" viewBox="0 0 38 37.131">
  <g id="Сгруппировать_1228" data-name="Сгруппировать 1228" transform="translate(0.5 0.5)">
    <rect id="Прямоугольник_279" data-name="Прямоугольник 279" width="37" height="36.131" transform="translate(37 36.131) rotate(180)" fill="none" stroke="#6bbbe1" stroke-miterlimit="10" stroke-width="1"/>
    <g id="Сгруппировать_1227" data-name="Сгруппировать 1227" transform="translate(10.211 5.262)">
      <g id="Сгруппировать_1220" data-name="Сгруппировать 1220">
        <g id="Сгруппировать_1219" data-name="Сгруппировать 1219">
          <g id="Сгруппировать_1218" data-name="Сгруппировать 1218">
            <path id="Контур_479" data-name="Контур 479" d="M1390.511,523.513V497.906h16.577v25.607Zm16-.571v0Zm-14.86-.575h14.288V499.049h-14.288v23.318Z" transform="translate(-1390.511 -497.906)" fill="#6bbbe1"/>
          </g>
        </g>
      </g>
      <g id="Сгруппировать_1223" data-name="Сгруппировать 1223" transform="translate(0.572 19.269)">
        <g id="Сгруппировать_1222" data-name="Сгруппировать 1222">
          <g id="Сгруппировать_1221" data-name="Сгруппировать 1221">
            <path id="Контур_480" data-name="Контур 480" d="M1390.978,514.776v-1.145h15.432v1.145Z" transform="translate(-1390.978 -513.631)" fill="#6bbbe1"/>
          </g>
        </g>
      </g>
      <g id="Сгруппировать_1226" data-name="Сгруппировать 1226" transform="translate(6.405 20.654)">
        <g id="Сгруппировать_1225" data-name="Сгруппировать 1225">
          <g id="Сгруппировать_1224" data-name="Сгруппировать 1224">
            <path id="Контур_481" data-name="Контур 481" d="M1395.738,516.644a1.881,1.881,0,0,1,1.882-1.883h0a1.881,1.881,0,0,1,1.882,1.883h0a1.881,1.881,0,0,1-1.882,1.881h0a1.881,1.881,0,0,1-1.882-1.881Zm1.143,0a.741.741,0,0,0,.739.738h0a.742.742,0,0,0,.74-.738h0a.743.743,0,0,0-.74-.74h0a.742.742,0,0,0-.739.74Z" transform="translate(-1395.738 -514.761)" fill="#6bbbe1"/>
          </g>
        </g>
      </g>
    </g>
  </g>
</svg>
