<svg width="50" height="50" viewBox="0 0 50 50" fill="none" xmlns="http://www.w3.org/2000/svg">
<path d="M49.2188 50C49.6484 50 50 49.6484 50 49.2188V0.78125C50 0.351562 49.6484 0 49.2188 0H0.78125C0.351562 0 0 0.351562 0 0.78125V49.2188C0 49.6484 0.351562 50 0.78125 50H49.2188ZM5.46875 47.1875C5.70313 36.4062 14.6484 27.8906 25.4687 28.125C36.2891 28.3594 44.8047 37.3047 44.5312 48.125C44.5312 48.2422 44.5312 48.3594 44.5312 48.4375H5.50781C5.46875 48.0078 5.46875 47.6172 5.46875 47.1875ZM24.6484 26.5625C19.8047 26.4453 15.9375 22.4609 16.0156 17.5781C16.1328 12.7344 20.1562 8.86719 25 8.98438H25.3516C30.1953 9.17969 33.9844 13.2812 33.7891 18.125C33.5938 22.9688 29.4922 26.7578 24.6484 26.5625ZM48.4375 48.4375H46.0938C46.0938 48.3594 46.0938 48.2422 46.0938 48.125C46.3281 38.0469 39.4141 29.2187 29.5703 27.0312C34.6875 24.4922 36.7969 18.2812 34.2969 13.1641C31.7578 8.04688 25.5469 5.9375 20.4297 8.4375C15.3125 10.9375 13.2031 17.1875 15.7031 22.3438C16.7188 24.375 18.3594 26.0547 20.4297 27.0703C10.9375 29.1406 4.14063 37.4609 3.90625 47.1875C3.90625 47.6172 3.90625 48.0469 3.90625 48.4375H1.5625V1.5625H48.4375V48.4375Z" fill="black"/>
</svg>
